2017-10-15 22:27:10 | Login : administrator logged in.
2017-10-15 22:32:31 | Login : administrator logged in.
2017-10-15 22:49:22 | Login : Test Company logged in.
2017-10-15 22:58:00 | Login : administrator logged in.
2017-10-16 06:16:49 | Login : administrator logged in.
2017-10-16 07:28:37 | Login : administrator logged in.
2017-10-16 07:29:27 | Login : Student Name logged in.
2017-10-16 10:02:21 | Login : administrator logged in.
2017-10-16 10:02:44 | Login : Student Name logged in.
2017-10-16 11:23:12 | Login : Student Name logged in.
2017-10-16 12:29:37 | Login : administrator logged in.
2017-10-16 12:32:15 | Login : Test Company logged in.
2017-10-17 06:17:31 | Login : administrator logged in.
2017-10-17 06:19:00 | Login : Test Company logged in.
2017-10-17 08:56:44 | Login : Test Company logged in.
2017-10-17 10:32:07 | Login : administrator logged in.
2017-10-17 12:28:13 | Login : Test Company logged in.
2017-10-19 03:27:28 | Login : Test Company logged in.
2017-10-19 04:17:03 | Login : Student Name logged in.
2017-10-19 04:51:37 | Login : Test Company logged in.
2017-10-19 04:53:44 | Login : Student Name logged in.
2017-10-19 05:11:12 | Login : Test Company logged in.
2017-10-19 05:12:42 | Login : Student Name logged in.
2017-10-19 09:31:44 | Login : Test Company logged in.
2017-10-19 10:20:53 | Login : Student Name logged in.
2017-10-19 10:22:39 | Login : Test Company logged in.
2017-10-20 16:14:16 | Login : Test Company logged in.
2017-10-20 16:37:33 | Login : Student Name logged in.
2017-10-20 16:40:42 | Login : administrator logged in.
2017-10-20 17:04:45 | Login : administrator logged in.
2017-10-21 09:19:58 | Login : administrator logged in.
2017-10-21 10:26:18 | Login : administrator logged in.
2017-10-21 10:45:17 | Login : Test Company logged in.
2017-10-22 14:23:26 | Login : administrator logged in.
2017-10-22 14:44:45 | Login : Student Name logged in.
2017-10-22 16:42:37 | Login : administrator logged in.
2017-10-22 16:43:48 | Login : Test Company logged in.
2017-10-22 16:47:19 | Login : Student Name logged in.
2017-10-22 16:53:12 | Login : Test Company logged in.
2017-10-22 16:58:34 | Login : administrator logged in.
2017-10-22 17:23:26 | Login : administrator logged in.
2017-10-22 18:08:17 | Login : Student Name logged in.
2017-10-22 18:08:46 | Login : Test Company logged in.
2017-10-22 18:30:52 | Login : Student Name logged in.
2017-10-22 19:30:34 | Login : Test Company logged in.
2017-10-22 19:34:44 | Login : administrator logged in.
2017-10-22 20:13:56 | Login : administrator logged in.
2017-10-23 08:11:40 | Login : administrator logged in.
2017-10-23 09:23:11 | Login : Student Name logged in.
2017-10-23 10:02:38 | Login : Test Company logged in.
2017-10-24 10:06:45 | Login : administrator logged in.
2017-10-24 10:27:16 | Login : Student Name logged in.
2017-10-24 10:29:53 | Login : Test Company logged in.
2017-10-28 02:17:41 | Login : administrator logged in.
2017-11-21 16:35:34 | Login : administrator logged in.
2017-12-08 09:42:30 | Login : administrator logged in.
2017-12-08 10:21:17 | Login : administrator logged in.
2017-12-08 10:21:35 | Login : Student Name logged in.
2017-12-08 10:22:40 | Login : administrator logged in.
2017-12-08 11:33:11 | Login : administrator logged in.
2017-12-08 12:21:54 | Login : administrator logged in.
2017-12-08 12:29:33 | Login : Student Name logged in.
2017-12-08 16:23:31 | Login : Student Name logged in.
2017-12-08 16:53:12 | Login : Student Name logged in.
2017-12-08 17:06:06 | Login : Student Name logged in.
2017-12-08 17:11:32 | Login : Test Company logged in.
2017-12-08 17:44:56 | Login : Test Company logged in.
2017-12-08 18:05:54 | Login : Super Admin logged in.
2017-12-08 18:10:58 | Login : Test Company logged in.
2017-12-08 18:12:02 | Login : Test Company logged in.
2017-12-08 18:32:14 | Login : Test Company logged in.
2017-12-08 18:38:18 | Login : Student Name logged in.
2017-12-09 07:09:35 | Login : Super Admin logged in.
2017-12-09 14:50:41 | Login : Test Company logged in.
2017-12-09 14:51:40 | Login : Super Admin logged in.
2017-12-09 14:54:42 | Login : Student Name logged in.
2017-12-09 15:24:56 | Login : Test Company logged in.
2017-12-10 15:00:44 | Login : Test Company logged in.
2017-12-10 15:13:22 | Login : Super Admin logged in.
2017-12-10 15:14:05 | Login : Student Name logged in.
2017-12-15 03:43:13 | Login : Super Admin logged in.
2017-12-15 03:49:20 | Login : Student Name logged in.
2017-12-15 03:53:05 | Login : Test Company logged in.
2017-12-15 09:51:21 | Login : Super Admin logged in.
2017-12-17 15:39:13 | Login : Super Admin logged in.
2017-12-17 16:01:10 | Login : Test Company logged in.
2017-12-17 16:16:21 | Login : Student Name logged in.
